%YAML 1.1
%TAG !u! tag:unity3d.com,2011:
--- !u!114 &11400000
MonoBehaviour:
  m_ObjectHideFlags: 0
  m_CorrespondingSourceObject: {fileID: 0}
  m_PrefabInstance: {fileID: 0}
  m_PrefabAsset: {fileID: 0}
  m_GameObject: {fileID: 0}
  m_Enabled: 1
  m_EditorHideFlags: 0
  m_Script: {fileID: 11500000, guid: e18d55967a5fd6ff2b892d0264c058bd, type: 3}
  m_Name: MeleeAttackAbility
  m_EditorClassIdentifier: 
  <TypeOfAbility>k__BackingField: 0
  <Damage>k__BackingField: 15
  <Range>k__BackingField: 2
  <CoolDownTime>k__BackingField: 2
