%YAML 1.1
%TAG !u! tag:unity3d.com,2011:
--- !u!114 &11400000
MonoBehaviour:
  m_ObjectHideFlags: 0
  m_CorrespondingSourceObject: {fileID: 0}
  m_PrefabInstance: {fileID: 0}
  m_PrefabAsset: {fileID: 0}
  m_GameObject: {fileID: 0}
  m_Enabled: 1
  m_EditorHideFlags: 0
  m_Script: {fileID: 11500000, guid: 756931ae8db736f2dafffadbcad6a673, type: 3}
  m_Name: EquipDefinition
  m_EditorClassIdentifier: 
  <Slots>k__BackingField:
  - EquipSlotType: 5
    Name: LeftHand
  - EquipSlotType: 5
    Name: RightHand
