%YAML 1.1
%TAG !u! tag:unity3d.com,2011:
--- !u!162 &1
EditorUserSettings:
  m_ObjectHideFlags: 0
  serializedVersion: 4
  m_ConfigSettings:
    RecentlyUsedSceneGuid-0:
      value: 5755010307025859085c5d26407a59414e154a73797020627b781f6bb5b26039
      flags: 0
    RecentlyUsedSceneGuid-1:
      value: 5009055607020b085b0d5521127a5d4015151b7b2f2e7236787c1936b2b16261
      flags: 0
    RecentlyUsedSceneGuid-2:
      value: 5a08045654545158580f5b7a152507421216417e2f7c75682e7a4530bab8303b
      flags: 0
    RecentlyUsedSceneGuid-3:
      value: 5452505e50025e0d58560f2313735c491515197a7b297733742f4d37b5b2606a
      flags: 0
    RecentlyUsedSceneGuid-4:
      value: 0608045752515c5d54580e7b167306444e4e1a7e2e7b71357c2d4b36e0b9656c
      flags: 0
    RecentlyUsedSceneGuid-5:
      value: 560156025402080b585a0a7a47760947134f1e737f2a74317a7d1e60bbb4626b
      flags: 0
    RecentlyUsedSceneGuid-6:
      value: 5b540202500d0c095c5a5f711620094847154f2f7f7974317d2b4965e3e1616d
      flags: 0
    RecentlyUsedSceneGuid-7:
      value: 5a5757560101590a5d0c0e24427b5d44434e4c7a7b7a23677f2b4565b7b5353a
      flags: 0
    RecentlyUsedSceneGuid-8:
      value: 0009055500570a590c5d0e2347775a42124f4e7d7d297364292c4461e6e4323c
      flags: 0
    RecentlyUsedSceneGuid-9:
      value: 5a01035e5c025e020b5e5b7516750a1441164072797e2364287e1860e3b83261
      flags: 0
    vcSharedLogLevel:
      value: 0d5e400f0650
      flags: 0
  m_VCAutomaticAdd: 1
  m_VCDebugCom: 0
  m_VCDebugCmd: 0
  m_VCDebugOut: 0
  m_SemanticMergeMode: 2
  m_DesiredImportWorkerCount: 6
  m_StandbyImportWorkerCount: 2
  m_IdleImportWorkerShutdownDelay: 60000
  m_VCShowFailedCheckout: 1
  m_VCOverwriteFailedCheckoutAssets: 1
  m_VCProjectOverlayIcons: 1
  m_VCHierarchyOverlayIcons: 1
  m_VCOtherOverlayIcons: 1
  m_VCAllowAsyncUpdate: 1
  m_ArtifactGarbageCollection: 1
